{
  "hash": "07024c1c",
  "configHash": "4c543352",
  "lockfileHash": "60079a42",
  "browserHash": "75591516",
  "optimized": {
    "vue": {
      "src": "../../node_modules/vue/dist/vue.runtime.esm-bundler.js",
      "file": "vue.js",
      "fileHash": "72045958",
      "needsInterop": false
    },
    "vue-router": {
      "src": "../../node_modules/vue-router/dist/vue-router.mjs",
      "file": "vue-router.js",
      "fileHash": "03fd8732",
      "needsInterop": false
    }
  },
  "chunks": {
    "chunk-SJGJBLN5": {
      "file": "chunk-SJGJBLN5.js"
    }
  }
}